{
  "vulnerabilities": [
    {
      "links": [
        {
          "url": "https://nvd.nist.gov/vuln/detail/CVE-2020-8130"
        }
      ],
      "identifiers": [
        {
          "url": "https://nvd.nist.gov/vuln/detail/CVE-2020-8130",
          "value": "CVE-2020-8130",
          "name": "CVE-2020-8130",
          "type": "cve"
        }
      ],
      "location": {
        "image": "registry.gitlab.com/gitlab-org/build/cng/git-base:2.24.1-ubi8",
        "operating_system": "rhel:8.1",
        "dependency": {
          "version": "12.3.2",
          "package": {
            "name": "rake:registry.gitlab.com/gitlab-org/build/cng/git-base:2.24.1-ubi8"
          }
        }
      },
      "scanner": {
        "name": "anchore",
        "id": "anchore"
      },
      "solution": "",
      "confidence": "Unknown",
      "severity": "High",
      "cve": "rake:CVE-2020-8130",
      "description": "No description available",
      "message": "CVE-2020-8130 in rake-12.3.2",
      "category": "container_scanning"
    },
    {
      "links": [
        {
          "url": "https://nvd.nist.gov/vuln/detail/CVE-2019-11879"
        }
      ],
      "identifiers": [
        {
          "url": "https://nvd.nist.gov/vuln/detail/CVE-2019-11879",
          "value": "CVE-2019-11879",
          "name": "CVE-2019-11879",
          "type": "cve"
        }
      ],
      "location": {
        "image": "registry.gitlab.com/gitlab-org/build/cng/git-base:2.24.1-ubi8",
        "operating_system": "rhel:8.1",
        "dependency": {
          "version": "1.4.2",
          "package": {
            "name": "webrick:registry.gitlab.com/gitlab-org/build/cng/git-base:2.24.1-ubi8"
          }
        }
      },
      "scanner": {
        "name": "anchore",
        "id": "anchore"
      },
      "solution": "",
      "confidence": "Unknown",
      "severity": "Medium",
      "cve": "webrick:CVE-2019-11879",
      "description": "No description available",
      "message": "CVE-2019-11879 in webrick-1.4.2",
      "category": "container_scanning"
    },
    {
      "links": [
        {
          "url": "https://nvd.nist.gov/vuln/detail/CVE-2019-11879"
        }
      ],
      "identifiers": [
        {
          "url": "https://nvd.nist.gov/vuln/detail/CVE-2019-11879",
          "value": "CVE-2019-11879",
          "name": "CVE-2019-11879",
          "type": "cve"
        }
      ],
      "location": {
        "image": "registry.gitlab.com/gitlab-org/build/cng/gitaly:v12.9.1-ubi8",
        "operating_system": "rhel:8.1",
        "dependency": {
          "version": "1.4.2",
          "package": {
            "name": "webrick:registry.gitlab.com/gitlab-org/build/cng/gitaly:v12.9.1-ubi8"
          }
        }
      },
      "scanner": {
        "name": "anchore",
        "id": "anchore"
      },
      "solution": "",
      "confidence": "Unknown",
      "severity": "Medium",
      "cve": "webrick:CVE-2019-11879",
      "description": "No description available",
      "message": "CVE-2019-11879 in webrick-1.4.2",
      "category": "container_scanning"
    },
    {
      "links": [
        {
          "url": "https://nvd.nist.gov/vuln/detail/CVE-2020-8130"
        }
      ],
      "identifiers": [
        {
          "url": "https://nvd.nist.gov/vuln/detail/CVE-2020-8130",
          "value": "CVE-2020-8130",
          "name": "CVE-2020-8130",
          "type": "cve"
        }
      ],
      "location": {
        "image": "registry.gitlab.com/gitlab-org/build/cng/gitaly:v12.9.1-ubi8",
        "operating_system": "rhel:8.1",
        "dependency": {
          "version": "12.3.2",
          "package": {
            "name": "rake:registry.gitlab.com/gitlab-org/build/cng/gitaly:v12.9.1-ubi8"
          }
        }
      },
      "scanner": {
        "name": "anchore",
        "id": "anchore"
      },
      "solution": "",
      "confidence": "Unknown",
      "severity": "High",
      "cve": "rake:CVE-2020-8130",
      "description": "No description available",
      "message": "CVE-2020-8130 in rake-12.3.2",
      "category": "container_scanning"
    },
    {
      "links": [
        {
          "url": "https://nvd.nist.gov/vuln/detail/CVE-2020-8130"
        }
      ],
      "identifiers": [
        {
          "url": "https://nvd.nist.gov/vuln/detail/CVE-2020-8130",
          "value": "CVE-2020-8130",
          "name": "CVE-2020-8130",
          "type": "cve"
        }
      ],
      "location": {
        "image": "registry.gitlab.com/gitlab-org/build/cng/gitlab-exporter:6.1.0-ubi8",
        "operating_system": "rhel:8.1",
        "dependency": {
          "version": "12.3.2",
          "package": {
            "name": "rake:registry.gitlab.com/gitlab-org/build/cng/gitlab-exporter:6.1.0-ubi8"
          }
        }
      },
      "scanner": {
        "name": "anchore",
        "id": "anchore"
      },
      "solution": "",
      "confidence": "Unknown",
      "severity": "High",
      "cve": "rake:CVE-2020-8130",
      "description": "No description available",
      "message": "CVE-2020-8130 in rake-12.3.2",
      "category": "container_scanning"
    },
    {
      "links": [
        {
          "url": "https://nvd.nist.gov/vuln/detail/CVE-2019-11879"
        }
      ],
      "identifiers": [
        {
          "url": "https://nvd.nist.gov/vuln/detail/CVE-2019-11879",
          "value": "CVE-2019-11879",
          "name": "CVE-2019-11879",
          "type": "cve"
        }
      ],
      "location": {
        "image": "registry.gitlab.com/gitlab-org/build/cng/gitlab-exporter:6.1.0-ubi8",
        "operating_system": "rhel:8.1",
        "dependency": {
          "version": "1.4.2",
          "package": {
            "name": "webrick:registry.gitlab.com/gitlab-org/build/cng/gitlab-exporter:6.1.0-ubi8"
          }
        }
      },
      "scanner": {
        "name": "anchore",
        "id": "anchore"
      },
      "solution": "",
      "confidence": "Unknown",
      "severity": "Medium",
      "cve": "webrick:CVE-2019-11879",
      "description": "No description available",
      "message": "CVE-2019-11879 in webrick-1.4.2",
      "category": "container_scanning"
    },
    {
      "links": [
        {
          "url": "https://nvd.nist.gov/vuln/detail/CVE-2015-9357"
        }
      ],
      "identifiers": [
        {
          "url": "https://nvd.nist.gov/vuln/detail/CVE-2015-9357",
          "value": "CVE-2015-9357",
          "name": "CVE-2015-9357",
          "type": "cve"
        }
      ],
      "location": {
        "image": "registry.gitlab.com/gitlab-org/build/cng/gitlab-geo-logcursor:v12.9.1-ubi8",
        "operating_system": "rhel:8.1",
        "dependency": {
          "version": "3.0.0",
          "package": {
            "name": "akismet:registry.gitlab.com/gitlab-org/build/cng/gitlab-geo-logcursor:v12.9.1-ubi8"
          }
        }
      },
      "scanner": {
        "name": "anchore",
        "id": "anchore"
      },
      "solution": "",
      "confidence": "Unknown",
      "severity": "Medium",
      "cve": "akismet:CVE-2015-9357",
      "description": "No description available",
      "message": "CVE-2015-9357 in akismet-3.0.0",
      "category": "container_scanning"
    },
    {
      "links": [
        {
          "url": "https://nvd.nist.gov/vuln/detail/CVE-2019-7614"
        }
      ],
      "identifiers": [
        {
          "url": "https://nvd.nist.gov/vuln/detail/CVE-2019-7614",
          "value": "CVE-2019-7614",
          "name": "CVE-2019-7614",
          "type": "cve"
        }
      ],
      "location": {
        "image": "registry.gitlab.com/gitlab-org/build/cng/gitlab-geo-logcursor:v12.9.1-ubi8",
        "operating_system": "rhel:8.1",
        "dependency": {
          "version": "6.8.0",
          "package": {
            "name": "elasticsearch:registry.gitlab.com/gitlab-org/build/cng/gitlab-geo-logcursor:v12.9.1-ubi8"
          }
        }
      },
      "scanner": {
        "name": "anchore",
        "id": "anchore"
      },
      "solution": "",
      "confidence": "Unknown",
      "severity": "Medium",
      "cve": "elasticsearch:CVE-2019-7614",
      "description": "No description available",
      "message": "CVE-2019-7614 in elasticsearch-6.8.0",
      "category": "container_scanning"
    },
    {
      "links": [
        {
          "url": "https://nvd.nist.gov/vuln/detail/CVE-2019-7619"
        }
      ],
      "identifiers": [
        {
          "url": "https://nvd.nist.gov/vuln/detail/CVE-2019-7619",
          "value": "CVE-2019-7619",
          "name": "CVE-2019-7619",
          "type": "cve"
        }
      ],
      "location": {
        "image": "registry.gitlab.com/gitlab-org/build/cng/gitlab-geo-logcursor:v12.9.1-ubi8",
        "operating_system": "rhel:8.1",
        "dependency": {
          "version": "6.8.0",
          "package": {
            "name": "elasticsearch:registry.gitlab.com/gitlab-org/build/cng/gitlab-geo-logcursor:v12.9.1-ubi8"
          }
        }
      },
      "scanner": {
        "name": "anchore",
        "id": "anchore"
      },
      "solution": "",
      "confidence": "Unknown",
      "severity": "Medium",
      "cve": "elasticsearch:CVE-2019-7619",
      "description": "No description available",
      "message": "CVE-2019-7619 in elasticsearch-6.8.0",
      "category": "container_scanning"
    },
    {
      "links": [
        {
          "url": "https://nvd.nist.gov/vuln/detail/CVE-2020-7009"
        }
      ],
      "identifiers": [
        {
          "url": "https://nvd.nist.gov/vuln/detail/CVE-2020-7009",
          "value": "CVE-2020-7009",
          "name": "CVE-2020-7009",
          "type": "cve"
        }
      ],
      "location": {
        "image": "registry.gitlab.com/gitlab-org/build/cng/gitlab-geo-logcursor:v12.9.1-ubi8",
        "operating_system": "rhel:8.1",
        "dependency": {
          "version": "6.8.0",
          "package": {
            "name": "elasticsearch:registry.gitlab.com/gitlab-org/build/cng/gitlab-geo-logcursor:v12.9.1-ubi8"
          }
        }
      },
      "scanner": {
        "name": "anchore",
        "id": "anchore"
      },
      "solution": "",
      "confidence": "Unknown",
      "severity": "Critical",
      "cve": "elasticsearch:CVE-2020-7009",
      "description": "No description available",
      "message": "CVE-2020-7009 in elasticsearch-6.8.0",
      "category": "container_scanning"
    },
    {
      "links": [
        {
          "url": "https://nvd.nist.gov/vuln/detail/CVE-2019-11879"
        }
      ],
      "identifiers": [
        {
          "url": "https://nvd.nist.gov/vuln/detail/CVE-2019-11879",
          "value": "CVE-2019-11879",
          "name": "CVE-2019-11879",
          "type": "cve"
        }
      ],
      "location": {
        "image": "registry.gitlab.com/gitlab-org/build/cng/gitlab-geo-logcursor:v12.9.1-ubi8",
        "operating_system": "rhel:8.1",
        "dependency": {
          "version": "1.4.2",
          "package": {
            "name": "webrick:registry.gitlab.com/gitlab-org/build/cng/gitlab-geo-logcursor:v12.9.1-ubi8"
          }
        }
      },
      "scanner": {
        "name": "anchore",
        "id": "anchore"
      },
      "solution": "",
      "confidence": "Unknown",
      "severity": "Medium",
      "cve": "webrick:CVE-2019-11879",
      "description": "No description available",
      "message": "CVE-2019-11879 in webrick-1.4.2",
      "category": "container_scanning"
    },
    {
      "links": [
        {
          "url": "https://nvd.nist.gov/vuln/detail/CVE-2020-8130"
        }
      ],
      "identifiers": [
        {
          "url": "https://nvd.nist.gov/vuln/detail/CVE-2020-8130",
          "value": "CVE-2020-8130",
          "name": "CVE-2020-8130",
          "type": "cve"
        }
      ],
      "location": {
        "image": "registry.gitlab.com/gitlab-org/build/cng/gitlab-geo-logcursor:v12.9.1-ubi8",
        "operating_system": "rhel:8.1",
        "dependency": {
          "version": "12.3.2",
          "package": {
            "name": "rake:registry.gitlab.com/gitlab-org/build/cng/gitlab-geo-logcursor:v12.9.1-ubi8"
          }
        }
      },
      "scanner": {
        "name": "anchore",
        "id": "anchore"
      },
      "solution": "",
      "confidence": "Unknown",
      "severity": "High",
      "cve": "rake:CVE-2020-8130",
      "description": "No description available",
      "message": "CVE-2020-8130 in rake-12.3.2",
      "category": "container_scanning"
    },
    {
      "links": [
        {
          "url": "https://nvd.nist.gov/vuln/detail/CVE-2020-8130"
        }
      ],
      "identifiers": [
        {
          "url": "https://nvd.nist.gov/vuln/detail/CVE-2020-8130",
          "value": "CVE-2020-8130",
          "name": "CVE-2020-8130",
          "type": "cve"
        }
      ],
      "location": {
        "image": "registry.gitlab.com/gitlab-org/build/cng/gitlab-mailroom:0.0.3-ubi8",
        "operating_system": "rhel:8.1",
        "dependency": {
          "version": "12.3.2",
          "package": {
            "name": "rake:registry.gitlab.com/gitlab-org/build/cng/gitlab-mailroom:0.0.3-ubi8"
          }
        }
      },
      "scanner": {
        "name": "anchore",
        "id": "anchore"
      },
      "solution": "",
      "confidence": "Unknown",
      "severity": "High",
      "cve": "rake:CVE-2020-8130",
      "description": "No description available",
      "message": "CVE-2020-8130 in rake-12.3.2",
      "category": "container_scanning"
    },
    {
      "links": [
        {
          "url": "https://nvd.nist.gov/vuln/detail/CVE-2019-11879"
        }
      ],
      "identifiers": [
        {
          "url": "https://nvd.nist.gov/vuln/detail/CVE-2019-11879",
          "value": "CVE-2019-11879",
          "name": "CVE-2019-11879",
          "type": "cve"
        }
      ],
      "location": {
        "image": "registry.gitlab.com/gitlab-org/build/cng/gitlab-mailroom:0.0.3-ubi8",
        "operating_system": "rhel:8.1",
        "dependency": {
          "version": "1.4.2",
          "package": {
            "name": "webrick:registry.gitlab.com/gitlab-org/build/cng/gitlab-mailroom:0.0.3-ubi8"
          }
        }
      },
      "scanner": {
        "name": "anchore",
        "id": "anchore"
      },
      "solution": "",
      "confidence": "Unknown",
      "severity": "Medium",
      "cve": "webrick:CVE-2019-11879",
      "description": "No description available",
      "message": "CVE-2019-11879 in webrick-1.4.2",
      "category": "container_scanning"
    },
    {
      "links": [
        {
          "url": "https://nvd.nist.gov/vuln/detail/CVE-2015-9357"
        }
      ],
      "identifiers": [
        {
          "url": "https://nvd.nist.gov/vuln/detail/CVE-2015-9357",
          "value": "CVE-2015-9357",
          "name": "CVE-2015-9357",
          "type": "cve"
        }
      ],
      "location": {
        "image": "registry.gitlab.com/gitlab-org/build/cng/gitlab-rails-ee:v12.9.1-ubi8",
        "operating_system": "rhel:8.1",
        "dependency": {
          "version": "3.0.0",
          "package": {
            "name": "akismet:registry.gitlab.com/gitlab-org/build/cng/gitlab-rails-ee:v12.9.1-ubi8"
          }
        }
      },
      "scanner": {
        "name": "anchore",
        "id": "anchore"
      },
      "solution": "",
      "confidence": "Unknown",
      "severity": "Medium",
      "cve": "akismet:CVE-2015-9357",
      "description": "No description available",
      "message": "CVE-2015-9357 in akismet-3.0.0",
      "category": "container_scanning"
    },
    {
      "links": [
        {
          "url": "https://nvd.nist.gov/vuln/detail/CVE-2019-7614"
        }
      ],
      "identifiers": [
        {
          "url": "https://nvd.nist.gov/vuln/detail/CVE-2019-7614",
          "value": "CVE-2019-7614",
          "name": "CVE-2019-7614",
          "type": "cve"
        }
      ],
      "location": {
        "image": "registry.gitlab.com/gitlab-org/build/cng/gitlab-rails-ee:v12.9.1-ubi8",
        "operating_system": "rhel:8.1",
        "dependency": {
          "version": "6.8.0",
          "package": {
            "name": "elasticsearch:registry.gitlab.com/gitlab-org/build/cng/gitlab-rails-ee:v12.9.1-ubi8"
          }
        }
      },
      "scanner": {
        "name": "anchore",
        "id": "anchore"
      },
      "solution": "",
      "confidence": "Unknown",
      "severity": "Medium",
      "cve": "elasticsearch:CVE-2019-7614",
      "description": "No description available",
      "message": "CVE-2019-7614 in elasticsearch-6.8.0",
      "category": "container_scanning"
    },
    {
      "links": [
        {
          "url": "https://nvd.nist.gov/vuln/detail/CVE-2019-7619"
        }
      ],
      "identifiers": [
        {
          "url": "https://nvd.nist.gov/vuln/detail/CVE-2019-7619",
          "value": "CVE-2019-7619",
          "name": "CVE-2019-7619",
          "type": "cve"
        }
      ],
      "location": {
        "image": "registry.gitlab.com/gitlab-org/build/cng/gitlab-rails-ee:v12.9.1-ubi8",
        "operating_system": "rhel:8.1",
        "dependency": {
          "version": "6.8.0",
          "package": {
            "name": "elasticsearch:registry.gitlab.com/gitlab-org/build/cng/gitlab-rails-ee:v12.9.1-ubi8"
          }
        }
      },
      "scanner": {
        "name": "anchore",
        "id": "anchore"
      },
      "solution": "",
      "confidence": "Unknown",
      "severity": "Medium",
      "cve": "elasticsearch:CVE-2019-7619",
      "description": "No description available",
      "message": "CVE-2019-7619 in elasticsearch-6.8.0",
      "category": "container_scanning"
    },
    {
      "links": [
        {
          "url": "https://nvd.nist.gov/vuln/detail/CVE-2020-7009"
        }
      ],
      "identifiers": [
        {
          "url": "https://nvd.nist.gov/vuln/detail/CVE-2020-7009",
          "value": "CVE-2020-7009",
          "name": "CVE-2020-7009",
          "type": "cve"
        }
      ],
      "location": {
        "image": "registry.gitlab.com/gitlab-org/build/cng/gitlab-rails-ee:v12.9.1-ubi8",
        "operating_system": "rhel:8.1",
        "dependency": {
          "version": "6.8.0",
          "package": {
            "name": "elasticsearch:registry.gitlab.com/gitlab-org/build/cng/gitlab-rails-ee:v12.9.1-ubi8"
          }
        }
      },
      "scanner": {
        "name": "anchore",
        "id": "anchore"
      },
      "solution": "",
      "confidence": "Unknown",
      "severity": "Critical",
      "cve": "elasticsearch:CVE-2020-7009",
      "description": "No description available",
      "message": "CVE-2020-7009 in elasticsearch-6.8.0",
      "category": "container_scanning"
    },
    {
      "links": [
        {
          "url": "https://nvd.nist.gov/vuln/detail/CVE-2019-11879"
        }
      ],
      "identifiers": [
        {
          "url": "https://nvd.nist.gov/vuln/detail/CVE-2019-11879",
          "value": "CVE-2019-11879",
          "name": "CVE-2019-11879",
          "type": "cve"
        }
      ],
      "location": {
        "image": "registry.gitlab.com/gitlab-org/build/cng/gitlab-rails-ee:v12.9.1-ubi8",
        "operating_system": "rhel:8.1",
        "dependency": {
          "version": "1.4.2",
          "package": {
            "name": "webrick:registry.gitlab.com/gitlab-org/build/cng/gitlab-rails-ee:v12.9.1-ubi8"
          }
        }
      },
      "scanner": {
        "name": "anchore",
        "id": "anchore"
      },
      "solution": "",
      "confidence": "Unknown",
      "severity": "Medium",
      "cve": "webrick:CVE-2019-11879",
      "description": "No description available",
      "message": "CVE-2019-11879 in webrick-1.4.2",
      "category": "container_scanning"
    },
    {
      "links": [
        {
          "url": "https://nvd.nist.gov/vuln/detail/CVE-2020-8130"
        }
      ],
      "identifiers": [
        {
          "url": "https://nvd.nist.gov/vuln/detail/CVE-2020-8130",
          "value": "CVE-2020-8130",
          "name": "CVE-2020-8130",
          "type": "cve"
        }
      ],
      "location": {
        "image": "registry.gitlab.com/gitlab-org/build/cng/gitlab-rails-ee:v12.9.1-ubi8",
        "operating_system": "rhel:8.1",
        "dependency": {
          "version": "12.3.2",
          "package": {
            "name": "rake:registry.gitlab.com/gitlab-org/build/cng/gitlab-rails-ee:v12.9.1-ubi8"
          }
        }
      },
      "scanner": {
        "name": "anchore",
        "id": "anchore"
      },
      "solution": "",
      "confidence": "Unknown",
      "severity": "High",
      "cve": "rake:CVE-2020-8130",
      "description": "No description available",
      "message": "CVE-2020-8130 in rake-12.3.2",
      "category": "container_scanning"
    },
    {
      "links": [
        {
          "url": "https://nvd.nist.gov/vuln/detail/CVE-2019-11879"
        }
      ],
      "identifiers": [
        {
          "url": "https://nvd.nist.gov/vuln/detail/CVE-2019-11879",
          "value": "CVE-2019-11879",
          "name": "CVE-2019-11879",
          "type": "cve"
        }
      ],
      "location": {
        "image": "registry.gitlab.com/gitlab-org/build/cng/gitlab-ruby:937735cf57954be8e3bb4fb25a1c8e0a2c57c4fd-ubi8",
        "operating_system": "rhel:8.1",
        "dependency": {
          "version": "1.4.2",
          "package": {
            "name": "webrick:registry.gitlab.com/gitlab-org/build/cng/gitlab-ruby:937735cf57954be8e3bb4fb25a1c8e0a2c57c4fd-ubi8"
          }
        }
      },
      "scanner": {
        "name": "anchore",
        "id": "anchore"
      },
      "solution": "",
      "confidence": "Unknown",
      "severity": "Medium",
      "cve": "webrick:CVE-2019-11879",
      "description": "No description available",
      "message": "CVE-2019-11879 in webrick-1.4.2",
      "category": "container_scanning"
    },
    {
      "links": [
        {
          "url": "https://nvd.nist.gov/vuln/detail/CVE-2020-8130"
        }
      ],
      "identifiers": [
        {
          "url": "https://nvd.nist.gov/vuln/detail/CVE-2020-8130",
          "value": "CVE-2020-8130",
          "name": "CVE-2020-8130",
          "type": "cve"
        }
      ],
      "location": {
        "image": "registry.gitlab.com/gitlab-org/build/cng/gitlab-ruby:937735cf57954be8e3bb4fb25a1c8e0a2c57c4fd-ubi8",
        "operating_system": "rhel:8.1",
        "dependency": {
          "version": "12.3.2",
          "package": {
            "name": "rake:registry.gitlab.com/gitlab-org/build/cng/gitlab-ruby:937735cf57954be8e3bb4fb25a1c8e0a2c57c4fd-ubi8"
          }
        }
      },
      "scanner": {
        "name": "anchore",
        "id": "anchore"
      },
      "solution": "",
      "confidence": "Unknown",
      "severity": "High",
      "cve": "rake:CVE-2020-8130",
      "description": "No description available",
      "message": "CVE-2020-8130 in rake-12.3.2",
      "category": "container_scanning"
    },
    {
      "links": [
        {
          "url": "https://nvd.nist.gov/vuln/detail/CVE-2019-11879"
        }
      ],
      "identifiers": [
        {
          "url": "https://nvd.nist.gov/vuln/detail/CVE-2019-11879",
          "value": "CVE-2019-11879",
          "name": "CVE-2019-11879",
          "type": "cve"
        }
      ],
      "location": {
        "image": "registry.gitlab.com/gitlab-org/build/cng/gitlab-shell:v12.0.0-ubi8",
        "operating_system": "rhel:8.1",
        "dependency": {
          "version": "1.4.2",
          "package": {
            "name": "webrick:registry.gitlab.com/gitlab-org/build/cng/gitlab-shell:v12.0.0-ubi8"
          }
        }
      },
      "scanner": {
        "name": "anchore",
        "id": "anchore"
      },
      "solution": "",
      "confidence": "Unknown",
      "severity": "Medium",
      "cve": "webrick:CVE-2019-11879",
      "description": "No description available",
      "message": "CVE-2019-11879 in webrick-1.4.2",
      "category": "container_scanning"
    },
    {
      "links": [
        {
          "url": "https://nvd.nist.gov/vuln/detail/CVE-2020-8130"
        }
      ],
      "identifiers": [
        {
          "url": "https://nvd.nist.gov/vuln/detail/CVE-2020-8130",
          "value": "CVE-2020-8130",
          "name": "CVE-2020-8130",
          "type": "cve"
        }
      ],
      "location": {
        "image": "registry.gitlab.com/gitlab-org/build/cng/gitlab-shell:v12.0.0-ubi8",
        "operating_system": "rhel:8.1",
        "dependency": {
          "version": "12.3.2",
          "package": {
            "name": "rake:registry.gitlab.com/gitlab-org/build/cng/gitlab-shell:v12.0.0-ubi8"
          }
        }
      },
      "scanner": {
        "name": "anchore",
        "id": "anchore"
      },
      "solution": "",
      "confidence": "Unknown",
      "severity": "High",
      "cve": "rake:CVE-2020-8130",
      "description": "No description available",
      "message": "CVE-2020-8130 in rake-12.3.2",
      "category": "container_scanning"
    },
    {
      "links": [
        {
          "url": "https://nvd.nist.gov/vuln/detail/CVE-2015-9357"
        }
      ],
      "identifiers": [
        {
          "url": "https://nvd.nist.gov/vuln/detail/CVE-2015-9357",
          "value": "CVE-2015-9357",
          "name": "CVE-2015-9357",
          "type": "cve"
        }
      ],
      "location": {
        "image": "registry.gitlab.com/gitlab-org/build/cng/gitlab-sidekiq-ee:v12.9.1-ubi8",
        "operating_system": "rhel:8.1",
        "dependency": {
          "version": "3.0.0",
          "package": {
            "name": "akismet:registry.gitlab.com/gitlab-org/build/cng/gitlab-sidekiq-ee:v12.9.1-ubi8"
          }
        }
      },
      "scanner": {
        "name": "anchore",
        "id": "anchore"
      },
      "solution": "",
      "confidence": "Unknown",
      "severity": "Medium",
      "cve": "akismet:CVE-2015-9357",
      "description": "No description available",
      "message": "CVE-2015-9357 in akismet-3.0.0",
      "category": "container_scanning"
    },
    {
      "links": [
        {
          "url": "https://nvd.nist.gov/vuln/detail/CVE-2019-7614"
        }
      ],
      "identifiers": [
        {
          "url": "https://nvd.nist.gov/vuln/detail/CVE-2019-7614",
          "value": "CVE-2019-7614",
          "name": "CVE-2019-7614",
          "type": "cve"
        }
      ],
      "location": {
        "image": "registry.gitlab.com/gitlab-org/build/cng/gitlab-sidekiq-ee:v12.9.1-ubi8",
        "operating_system": "rhel:8.1",
        "dependency": {
          "version": "6.8.0",
          "package": {
            "name": "elasticsearch:registry.gitlab.com/gitlab-org/build/cng/gitlab-sidekiq-ee:v12.9.1-ubi8"
          }
        }
      },
      "scanner": {
        "name": "anchore",
        "id": "anchore"
      },
      "solution": "",
      "confidence": "Unknown",
      "severity": "Medium",
      "cve": "elasticsearch:CVE-2019-7614",
      "description": "No description available",
      "message": "CVE-2019-7614 in elasticsearch-6.8.0",
      "category": "container_scanning"
    },
    {
      "links": [
        {
          "url": "https://nvd.nist.gov/vuln/detail/CVE-2019-7619"
        }
      ],
      "identifiers": [
        {
          "url": "https://nvd.nist.gov/vuln/detail/CVE-2019-7619",
          "value": "CVE-2019-7619",
          "name": "CVE-2019-7619",
          "type": "cve"
        }
      ],
      "location": {
        "image": "registry.gitlab.com/gitlab-org/build/cng/gitlab-sidekiq-ee:v12.9.1-ubi8",
        "operating_system": "rhel:8.1",
        "dependency": {
          "version": "6.8.0",
          "package": {
            "name": "elasticsearch:registry.gitlab.com/gitlab-org/build/cng/gitlab-sidekiq-ee:v12.9.1-ubi8"
          }
        }
      },
      "scanner": {
        "name": "anchore",
        "id": "anchore"
      },
      "solution": "",
      "confidence": "Unknown",
      "severity": "Medium",
      "cve": "elasticsearch:CVE-2019-7619",
      "description": "No description available",
      "message": "CVE-2019-7619 in elasticsearch-6.8.0",
      "category": "container_scanning"
    },
    {
      "links": [
        {
          "url": "https://nvd.nist.gov/vuln/detail/CVE-2020-7009"
        }
      ],
      "identifiers": [
        {
          "url": "https://nvd.nist.gov/vuln/detail/CVE-2020-7009",
          "value": "CVE-2020-7009",
          "name": "CVE-2020-7009",
          "type": "cve"
        }
      ],
      "location": {
        "image": "registry.gitlab.com/gitlab-org/build/cng/gitlab-sidekiq-ee:v12.9.1-ubi8",
        "operating_system": "rhel:8.1",
        "dependency": {
          "version": "6.8.0",
          "package": {
            "name": "elasticsearch:registry.gitlab.com/gitlab-org/build/cng/gitlab-sidekiq-ee:v12.9.1-ubi8"
          }
        }
      },
      "scanner": {
        "name": "anchore",
        "id": "anchore"
      },
      "solution": "",
      "confidence": "Unknown",
      "severity": "Critical",
      "cve": "elasticsearch:CVE-2020-7009",
      "description": "No description available",
      "message": "CVE-2020-7009 in elasticsearch-6.8.0",
      "category": "container_scanning"
    },
    {
      "links": [
        {
          "url": "https://nvd.nist.gov/vuln/detail/CVE-2019-11879"
        }
      ],
      "identifiers": [
        {
          "url": "https://nvd.nist.gov/vuln/detail/CVE-2019-11879",
          "value": "CVE-2019-11879",
          "name": "CVE-2019-11879",
          "type": "cve"
        }
      ],
      "location": {
        "image": "registry.gitlab.com/gitlab-org/build/cng/gitlab-sidekiq-ee:v12.9.1-ubi8",
        "operating_system": "rhel:8.1",
        "dependency": {
          "version": "1.4.2",
          "package": {
            "name": "webrick:registry.gitlab.com/gitlab-org/build/cng/gitlab-sidekiq-ee:v12.9.1-ubi8"
          }
        }
      },
      "scanner": {
        "name": "anchore",
        "id": "anchore"
      },
      "solution": "",
      "confidence": "Unknown",
      "severity": "Medium",
      "cve": "webrick:CVE-2019-11879",
      "description": "No description available",
      "message": "CVE-2019-11879 in webrick-1.4.2",
      "category": "container_scanning"
    },
    {
      "links": [
        {
          "url": "https://nvd.nist.gov/vuln/detail/CVE-2020-8130"
        }
      ],
      "identifiers": [
        {
          "url": "https://nvd.nist.gov/vuln/detail/CVE-2020-8130",
          "value": "CVE-2020-8130",
          "name": "CVE-2020-8130",
          "type": "cve"
        }
      ],
      "location": {
        "image": "registry.gitlab.com/gitlab-org/build/cng/gitlab-sidekiq-ee:v12.9.1-ubi8",
        "operating_system": "rhel:8.1",
        "dependency": {
          "version": "12.3.2",
          "package": {
            "name": "rake:registry.gitlab.com/gitlab-org/build/cng/gitlab-sidekiq-ee:v12.9.1-ubi8"
          }
        }
      },
      "scanner": {
        "name": "anchore",
        "id": "anchore"
      },
      "solution": "",
      "confidence": "Unknown",
      "severity": "High",
      "cve": "rake:CVE-2020-8130",
      "description": "No description available",
      "message": "CVE-2020-8130 in rake-12.3.2",
      "category": "container_scanning"
    },
    {
      "links": [
        {
          "url": "https://nvd.nist.gov/vuln/detail/CVE-2015-9357"
        }
      ],
      "identifiers": [
        {
          "url": "https://nvd.nist.gov/vuln/detail/CVE-2015-9357",
          "value": "CVE-2015-9357",
          "name": "CVE-2015-9357",
          "type": "cve"
        }
      ],
      "location": {
        "image": "registry.gitlab.com/gitlab-org/build/cng/gitlab-task-runner-ee:v12.9.1-ubi8",
        "operating_system": "rhel:8.1",
        "dependency": {
          "version": "3.0.0",
          "package": {
            "name": "akismet:registry.gitlab.com/gitlab-org/build/cng/gitlab-task-runner-ee:v12.9.1-ubi8"
          }
        }
      },
      "scanner": {
        "name": "anchore",
        "id": "anchore"
      },
      "solution": "",
      "confidence": "Unknown",
      "severity": "Medium",
      "cve": "akismet:CVE-2015-9357",
      "description": "No description available",
      "message": "CVE-2015-9357 in akismet-3.0.0",
      "category": "container_scanning"
    },
    {
      "links": [
        {
          "url": "https://nvd.nist.gov/vuln/detail/CVE-2019-7614"
        }
      ],
      "identifiers": [
        {
          "url": "https://nvd.nist.gov/vuln/detail/CVE-2019-7614",
          "value": "CVE-2019-7614",
          "name": "CVE-2019-7614",
          "type": "cve"
        }
      ],
      "location": {
        "image": "registry.gitlab.com/gitlab-org/build/cng/gitlab-task-runner-ee:v12.9.1-ubi8",
        "operating_system": "rhel:8.1",
        "dependency": {
          "version": "6.8.0",
          "package": {
            "name": "elasticsearch:registry.gitlab.com/gitlab-org/build/cng/gitlab-task-runner-ee:v12.9.1-ubi8"
          }
        }
      },
      "scanner": {
        "name": "anchore",
        "id": "anchore"
      },
      "solution": "",
      "confidence": "Unknown",
      "severity": "Medium",
      "cve": "elasticsearch:CVE-2019-7614",
      "description": "No description available",
      "message": "CVE-2019-7614 in elasticsearch-6.8.0",
      "category": "container_scanning"
    },
    {
      "links": [
        {
          "url": "https://nvd.nist.gov/vuln/detail/CVE-2019-7619"
        }
      ],
      "identifiers": [
        {
          "url": "https://nvd.nist.gov/vuln/detail/CVE-2019-7619",
          "value": "CVE-2019-7619",
          "name": "CVE-2019-7619",
          "type": "cve"
        }
      ],
      "location": {
        "image": "registry.gitlab.com/gitlab-org/build/cng/gitlab-task-runner-ee:v12.9.1-ubi8",
        "operating_system": "rhel:8.1",
        "dependency": {
          "version": "6.8.0",
          "package": {
            "name": "elasticsearch:registry.gitlab.com/gitlab-org/build/cng/gitlab-task-runner-ee:v12.9.1-ubi8"
          }
        }
      },
      "scanner": {
        "name": "anchore",
        "id": "anchore"
      },
      "solution": "",
      "confidence": "Unknown",
      "severity": "Medium",
      "cve": "elasticsearch:CVE-2019-7619",
      "description": "No description available",
      "message": "CVE-2019-7619 in elasticsearch-6.8.0",
      "category": "container_scanning"
    },
    {
      "links": [
        {
          "url": "https://nvd.nist.gov/vuln/detail/CVE-2020-7009"
        }
      ],
      "identifiers": [
        {
          "url": "https://nvd.nist.gov/vuln/detail/CVE-2020-7009",
          "value": "CVE-2020-7009",
          "name": "CVE-2020-7009",
          "type": "cve"
        }
      ],
      "location": {
        "image": "registry.gitlab.com/gitlab-org/build/cng/gitlab-task-runner-ee:v12.9.1-ubi8",
        "operating_system": "rhel:8.1",
        "dependency": {
          "version": "6.8.0",
          "package": {
            "name": "elasticsearch:registry.gitlab.com/gitlab-org/build/cng/gitlab-task-runner-ee:v12.9.1-ubi8"
          }
        }
      },
      "scanner": {
        "name": "anchore",
        "id": "anchore"
      },
      "solution": "",
      "confidence": "Unknown",
      "severity": "Critical",
      "cve": "elasticsearch:CVE-2020-7009",
      "description": "No description available",
      "message": "CVE-2020-7009 in elasticsearch-6.8.0",
      "category": "container_scanning"
    },
    {
      "links": [
        {
          "url": "https://nvd.nist.gov/vuln/detail/CVE-2019-11879"
        }
      ],
      "identifiers": [
        {
          "url": "https://nvd.nist.gov/vuln/detail/CVE-2019-11879",
          "value": "CVE-2019-11879",
          "name": "CVE-2019-11879",
          "type": "cve"
        }
      ],
      "location": {
        "image": "registry.gitlab.com/gitlab-org/build/cng/gitlab-task-runner-ee:v12.9.1-ubi8",
        "operating_system": "rhel:8.1",
        "dependency": {
          "version": "1.4.2",
          "package": {
            "name": "webrick:registry.gitlab.com/gitlab-org/build/cng/gitlab-task-runner-ee:v12.9.1-ubi8"
          }
        }
      },
      "scanner": {
        "name": "anchore",
        "id": "anchore"
      },
      "solution": "",
      "confidence": "Unknown",
      "severity": "Medium",
      "cve": "webrick:CVE-2019-11879",
      "description": "No description available",
      "message": "CVE-2019-11879 in webrick-1.4.2",
      "category": "container_scanning"
    },
    {
      "links": [
        {
          "url": "https://nvd.nist.gov/vuln/detail/CVE-2020-8130"
        }
      ],
      "identifiers": [
        {
          "url": "https://nvd.nist.gov/vuln/detail/CVE-2020-8130",
          "value": "CVE-2020-8130",
          "name": "CVE-2020-8130",
          "type": "cve"
        }
      ],
      "location": {
        "image": "registry.gitlab.com/gitlab-org/build/cng/gitlab-task-runner-ee:v12.9.1-ubi8",
        "operating_system": "rhel:8.1",
        "dependency": {
          "version": "12.3.2",
          "package": {
            "name": "rake:registry.gitlab.com/gitlab-org/build/cng/gitlab-task-runner-ee:v12.9.1-ubi8"
          }
        }
      },
      "scanner": {
        "name": "anchore",
        "id": "anchore"
      },
      "solution": "",
      "confidence": "Unknown",
      "severity": "High",
      "cve": "rake:CVE-2020-8130",
      "description": "No description available",
      "message": "CVE-2020-8130 in rake-12.3.2",
      "category": "container_scanning"
    },
    {
      "links": [
        {
          "url": "https://access.redhat.com/errata/RHSA-2020:0902"
        }
      ],
      "identifiers": [
        {
          "url": "https://access.redhat.com/errata/RHSA-2020:0902",
          "value": "RHSA-2020:0902",
          "name": "RHSA-2020:0902",
          "type": "cve"
        }
      ],
      "location": {
        "image": "registry.gitlab.com/gitlab-org/build/cng/gitlab-ubi-builder:38de9c874e995b476c3fa6f39292d3c3a6305963-ubi8",
        "operating_system": "rhel:8.1",
        "dependency": {
          "version": "60.3-1.el8",
          "package": {
            "name": "libicu:registry.gitlab.com/gitlab-org/build/cng/gitlab-ubi-builder:38de9c874e995b476c3fa6f39292d3c3a6305963-ubi8"
          }
        }
      },
      "scanner": {
        "name": "anchore",
        "id": "anchore"
      },
      "solution": "",
      "confidence": "Unknown",
      "severity": "High",
      "cve": "libicu:RHSA-2020:0902",
      "description": "No description available",
      "message": "RHSA-2020:0902 in libicu-60.3-1.el8",
      "category": "container_scanning"
    },
    {
      "links": [
        {
          "url": "https://access.redhat.com/errata/RHSA-2020:0902"
        }
      ],
      "identifiers": [
        {
          "url": "https://access.redhat.com/errata/RHSA-2020:0902",
          "value": "RHSA-2020:0902",
          "name": "RHSA-2020:0902",
          "type": "cve"
        }
      ],
      "location": {
        "image": "registry.gitlab.com/gitlab-org/build/cng/gitlab-ubi-builder:38de9c874e995b476c3fa6f39292d3c3a6305963-ubi8",
        "operating_system": "rhel:8.1",
        "dependency": {
          "version": "60.3-1.el8",
          "package": {
            "name": "libicu-devel:registry.gitlab.com/gitlab-org/build/cng/gitlab-ubi-builder:38de9c874e995b476c3fa6f39292d3c3a6305963-ubi8"
          }
        }
      },
      "scanner": {
        "name": "anchore",
        "id": "anchore"
      },
      "solution": "",
      "confidence": "Unknown",
      "severity": "High",
      "cve": "libicu-devel:RHSA-2020:0902",
      "description": "No description available",
      "message": "RHSA-2020:0902 in libicu-devel-60.3-1.el8",
      "category": "container_scanning"
    },
    {
      "links": [
        {
          "url": "https://nvd.nist.gov/vuln/detail/CVE-2015-9357"
        }
      ],
      "identifiers": [
        {
          "url": "https://nvd.nist.gov/vuln/detail/CVE-2015-9357",
          "value": "CVE-2015-9357",
          "name": "CVE-2015-9357",
          "type": "cve"
        }
      ],
      "location": {
        "image": "registry.gitlab.com/gitlab-org/build/cng/gitlab-webservice-ee:v12.9.1-ubi8",
        "operating_system": "rhel:8.1",
        "dependency": {
          "version": "3.0.0",
          "package": {
            "name": "akismet:registry.gitlab.com/gitlab-org/build/cng/gitlab-webservice-ee:v12.9.1-ubi8"
          }
        }
      },
      "scanner": {
        "name": "anchore",
        "id": "anchore"
      },
      "solution": "",
      "confidence": "Unknown",
      "severity": "Medium",
      "cve": "akismet:CVE-2015-9357",
      "description": "No description available",
      "message": "CVE-2015-9357 in akismet-3.0.0",
      "category": "container_scanning"
    },
    {
      "links": [
        {
          "url": "https://nvd.nist.gov/vuln/detail/CVE-2019-7614"
        }
      ],
      "identifiers": [
        {
          "url": "https://nvd.nist.gov/vuln/detail/CVE-2019-7614",
          "value": "CVE-2019-7614",
          "name": "CVE-2019-7614",
          "type": "cve"
        }
      ],
      "location": {
        "image": "registry.gitlab.com/gitlab-org/build/cng/gitlab-webservice-ee:v12.9.1-ubi8",
        "operating_system": "rhel:8.1",
        "dependency": {
          "version": "6.8.0",
          "package": {
            "name": "elasticsearch:registry.gitlab.com/gitlab-org/build/cng/gitlab-webservice-ee:v12.9.1-ubi8"
          }
        }
      },
      "scanner": {
        "name": "anchore",
        "id": "anchore"
      },
      "solution": "",
      "confidence": "Unknown",
      "severity": "Medium",
      "cve": "elasticsearch:CVE-2019-7614",
      "description": "No description available",
      "message": "CVE-2019-7614 in elasticsearch-6.8.0",
      "category": "container_scanning"
    },
    {
      "links": [
        {
          "url": "https://nvd.nist.gov/vuln/detail/CVE-2019-7619"
        }
      ],
      "identifiers": [
        {
          "url": "https://nvd.nist.gov/vuln/detail/CVE-2019-7619",
          "value": "CVE-2019-7619",
          "name": "CVE-2019-7619",
          "type": "cve"
        }
      ],
      "location": {
        "image": "registry.gitlab.com/gitlab-org/build/cng/gitlab-webservice-ee:v12.9.1-ubi8",
        "operating_system": "rhel:8.1",
        "dependency": {
          "version": "6.8.0",
          "package": {
            "name": "elasticsearch:registry.gitlab.com/gitlab-org/build/cng/gitlab-webservice-ee:v12.9.1-ubi8"
          }
        }
      },
      "scanner": {
        "name": "anchore",
        "id": "anchore"
      },
      "solution": "",
      "confidence": "Unknown",
      "severity": "Medium",
      "cve": "elasticsearch:CVE-2019-7619",
      "description": "No description available",
      "message": "CVE-2019-7619 in elasticsearch-6.8.0",
      "category": "container_scanning"
    },
    {
      "links": [
        {
          "url": "https://nvd.nist.gov/vuln/detail/CVE-2020-7009"
        }
      ],
      "identifiers": [
        {
          "url": "https://nvd.nist.gov/vuln/detail/CVE-2020-7009",
          "value": "CVE-2020-7009",
          "name": "CVE-2020-7009",
          "type": "cve"
        }
      ],
      "location": {
        "image": "registry.gitlab.com/gitlab-org/build/cng/gitlab-webservice-ee:v12.9.1-ubi8",
        "operating_system": "rhel:8.1",
        "dependency": {
          "version": "6.8.0",
          "package": {
            "name": "elasticsearch:registry.gitlab.com/gitlab-org/build/cng/gitlab-webservice-ee:v12.9.1-ubi8"
          }
        }
      },
      "scanner": {
        "name": "anchore",
        "id": "anchore"
      },
      "solution": "",
      "confidence": "Unknown",
      "severity": "Critical",
      "cve": "elasticsearch:CVE-2020-7009",
      "description": "No description available",
      "message": "CVE-2020-7009 in elasticsearch-6.8.0",
      "category": "container_scanning"
    },
    {
      "links": [
        {
          "url": "https://nvd.nist.gov/vuln/detail/CVE-2019-11879"
        }
      ],
      "identifiers": [
        {
          "url": "https://nvd.nist.gov/vuln/detail/CVE-2019-11879",
          "value": "CVE-2019-11879",
          "name": "CVE-2019-11879",
          "type": "cve"
        }
      ],
      "location": {
        "image": "registry.gitlab.com/gitlab-org/build/cng/gitlab-webservice-ee:v12.9.1-ubi8",
        "operating_system": "rhel:8.1",
        "dependency": {
          "version": "1.4.2",
          "package": {
            "name": "webrick:registry.gitlab.com/gitlab-org/build/cng/gitlab-webservice-ee:v12.9.1-ubi8"
          }
        }
      },
      "scanner": {
        "name": "anchore",
        "id": "anchore"
      },
      "solution": "",
      "confidence": "Unknown",
      "severity": "Medium",
      "cve": "webrick:CVE-2019-11879",
      "description": "No description available",
      "message": "CVE-2019-11879 in webrick-1.4.2",
      "category": "container_scanning"
    },
    {
      "links": [
        {
          "url": "https://nvd.nist.gov/vuln/detail/CVE-2020-8130"
        }
      ],
      "identifiers": [
        {
          "url": "https://nvd.nist.gov/vuln/detail/CVE-2020-8130",
          "value": "CVE-2020-8130",
          "name": "CVE-2020-8130",
          "type": "cve"
        }
      ],
      "location": {
        "image": "registry.gitlab.com/gitlab-org/build/cng/gitlab-webservice-ee:v12.9.1-ubi8",
        "operating_system": "rhel:8.1",
        "dependency": {
          "version": "12.3.2",
          "package": {
            "name": "rake:registry.gitlab.com/gitlab-org/build/cng/gitlab-webservice-ee:v12.9.1-ubi8"
          }
        }
      },
      "scanner": {
        "name": "anchore",
        "id": "anchore"
      },
      "solution": "",
      "confidence": "Unknown",
      "severity": "High",
      "cve": "rake:CVE-2020-8130",
      "description": "No description available",
      "message": "CVE-2020-8130 in rake-12.3.2",
      "category": "container_scanning"
    },
    {
      "links": [
        {
          "url": "https://nvd.nist.gov/vuln/detail/CVE-2020-8130"
        }
      ],
      "identifiers": [
        {
          "url": "https://nvd.nist.gov/vuln/detail/CVE-2020-8130",
          "value": "CVE-2020-8130",
          "name": "CVE-2020-8130",
          "type": "cve"
        }
      ],
      "location": {
        "image": "registry.gitlab.com/gitlab-org/build/cng/gitlab-workhorse-ee:v12.9.1-ubi8",
        "operating_system": "rhel:8.1",
        "dependency": {
          "version": "12.3.2",
          "package": {
            "name": "rake:registry.gitlab.com/gitlab-org/build/cng/gitlab-workhorse-ee:v12.9.1-ubi8"
          }
        }
      },
      "scanner": {
        "name": "anchore",
        "id": "anchore"
      },
      "solution": "",
      "confidence": "Unknown",
      "severity": "High",
      "cve": "rake:CVE-2020-8130",
      "description": "No description available",
      "message": "CVE-2020-8130 in rake-12.3.2",
      "category": "container_scanning"
    },
    {
      "links": [
        {
          "url": "https://nvd.nist.gov/vuln/detail/CVE-2019-11879"
        }
      ],
      "identifiers": [
        {
          "url": "https://nvd.nist.gov/vuln/detail/CVE-2019-11879",
          "value": "CVE-2019-11879",
          "name": "CVE-2019-11879",
          "type": "cve"
        }
      ],
      "location": {
        "image": "registry.gitlab.com/gitlab-org/build/cng/gitlab-workhorse-ee:v12.9.1-ubi8",
        "operating_system": "rhel:8.1",
        "dependency": {
          "version": "1.4.2",
          "package": {
            "name": "webrick:registry.gitlab.com/gitlab-org/build/cng/gitlab-workhorse-ee:v12.9.1-ubi8"
          }
        }
      },
      "scanner": {
        "name": "anchore",
        "id": "anchore"
      },
      "solution": "",
      "confidence": "Unknown",
      "severity": "Medium",
      "cve": "webrick:CVE-2019-11879",
      "description": "No description available",
      "message": "CVE-2019-11879 in webrick-1.4.2",
      "category": "container_scanning"
    }
  ],
  "remediations": [],
  "version": "0.1"
}
